# simulation/X = 0.75
# simulation/Y = 0.25
# simulation/elements = H He
# simulation/z = 3.0
# simulation/base_grid = 256
# simulation/length = 1024.0 pc
# simulation/nsteps = 100000
# simulation/output_frequency = 25
# simulation/CaseA = True
# simulation/max_rt_timestep = 1.0 Myr
# simulation/min_rt_timestep = 0.05 yr
# simulation/Ob = 0.0486
# simulation/Om = 0.3075
# simulation/Ol = 0.6910098315260953
# simulation/H0 = 67.74 km / (Mpc s)
# simulation/filename = 55h_M05
# simulation/id = 55h_M05
# clump/d = 100.0 kpc
# clump/r = 50.0 pc
# clump/h = 2.5 pc
# clump/x = 280.0 pc
# clump/y = 280.0 pc
# clump/z = 280.0 pc
# clump/Mach = [0.5, 1, 2]
# clump/n = 32.056301897970904 1 / cm3
# clump/T = 5000.0 K
# clump/ntr_frac_0 = 1
# clump/ntr_frac_1 = 1
# clump/ntr_frac_2 = 0
# clump/mu = 1.2307692307692308
# clump/rho = 39.453910028271885 1 / cm3
# clump/p = 1.383807771581903e-09 Mpc2 / (cm3 Myr2)
# clump/u = 0.0 Mpc / Myr
# clump/v = 0.0 Mpc / Myr
# clump/w = 0.0 Mpc / Myr
# halo/n = 0.01602815094898545 1 / cm3
# halo/T = 10000000.0 K
# halo/ntr_frac_0 = 0
# halo/ntr_frac_1 = 0
# halo/ntr_frac_2 = 0
# halo/mu = 0.5925925925925926
# halo/rho = 0.009498163525324711 1 / cm3
# halo/p = 1.383807771581903e-09 Mpc2 / (cm3 Myr2)
# halo/Mach = 0.5
# QSO/L = 1e+55 Hz
# QSO/log10_L = 55.0
# QSO/a = -1.7
# QSO/scaled_x = -5.773402691896258
# QSO/scaled_y = -5.773402691896258
# QSO/scaled_z = -5.773402691896258
# QSO/scaled_L = 1.150212677765651e+53 Hz
# QSO/log10_scaled_L = 53.060778150127746
# QSO/scaled_clump_d = 10.724796864116593 kpc
# WGN/method = Box-Muller
# WGN/variable = rho
# WGN/range = [16.028150948985452, 64.11260379594181]
# WGN/random seed = 19900716
# WGN/standard deviation = 1.0
# WGN/mean = 0.0
# WGN/amplitude = 30.0

# species
NSpecies = 3

# general
ActualRun = .true.
VersionID = 55h_M05

# initial evolution
DoInitEvol = .false.
InitCollEq = .false.

# optimization
MinTau = 0.01 0.01 0.01
MinTauDiff = 0.01 0.01 0.01
MinTauCell = 0.01 0.01 0.01

# light speed params
LightSpeedLimit = .false.

# Recombination
CaseA = .ture.
ClumpingFactor = 1

# UVB
InitUVBEq = .false.
UVB_SS = .false.
KeepBKG = .false.

# log
Verbosity = 3

# timestep
TimeStepFact = 0.25
InitialSimTime = 0.0
SimulationTime = 60  # Myr
MaxTimeStep = 1.0  # Myr
MinTimeStep = 5e-08  # Myr

# cosmology
OmegaBaryonNow = 0.0486
OmegaCDMNow = 0.3075
OmegaLambdaNow = 0.6910098315260953
HubbleConstNow = 67.74  # km / s / Mpc
InitialRedshift = 3.0

# ic
InitHIIradius = 12.205485245182738  # box size
InitHIITemp = 1e4  # K
SafetyDist = 12.205485245182738  # box size

# Heating & Cooling mechanisms
IncludeCollIon = 1
IncludeCollExc = 1
IncludeHubbleCool = 0
IncludeComptCool = 0
IncludeQSOComptHeat = .true.

# Single source
NSources = 1
SourceCoords = -5.773402691896258, -5.773402691896258, -5.773402691896258  # box length
SpectrumType = 1
TotalIonRate = 53.060778150127746  # 1e+55 Hz
SpectrumSlope = 1.7  # -1.7
OpAngle = 0.0
NSpectralRegions = 3
NSpectralBins = 10 10 50
MinMaxEnergy = 1 1.8 1.8 4 4 100

# Logger
unicode_plotting = enable
projection_axis = z
colormap = rainbow

# Report
report_pseudocolor = rho
report_histogram = rho
report_histogram  = |v|
report_histogram   = temp
report_histogram    = e_tot
report_histogram     = ntr_frac_0
report_frequency = 10

# Ray tracing
NRays = 5
MaxTau = 50 50 50

# Initial Condition
ic_type = snapshot
ic_snapshot_type = rhyme
ic_snapshot_path = './output/55h_M05-041510.chombo.h5'
ic_grid = 256 256 256
ic_box_lengths = 1.024 1.024 1.024 'kpc'
ic_redshift = 3.0

# AMR
ic_nlevels = 1
max_nboxes = 1

# Internal Units
density_unit = "m_H / cm^3"
length_unit = "Mpc"
time_unit = "Myr"

# Boundary Conditions
left_bc = inflow 0.009498163525324711 0.00014224984873976754 0.00014224984873976754 0.00014224984873976754 1.383807771581903e-09 10000000.0 0 0 0
right_bc = outflow
bottom_bc = inflow 0.009498163525324711 0.00014224984873976754 0.00014224984873976754 0.00014224984873976754 1.383807771581903e-09 10000000.0 0 0 0
top_bc = outflow
back_bc = outflow
front_bc = inflow 0.009498163525324711 0.00014224984873976754 0.00014224984873976754 0.00014224984873976754 1.383807771581903e-09 10000000.0 0 0 0

# Thermodynamics
ideal_gas_type = monatomic

# CFL
courant_number = 0.25  # Better to choose a value less than 0.2

# Exact Riemann Solver
vacuum_pressure = 1.383807771581903e-29  # cm^-3 Mpc^2 Myr^-2
vacuum_density = 9.498163525324711e-23  # cm^-3
tolerance = 1.d-8
n_iteration = 10000

# Slope Limiter
slope_limiter = minmod
slope_limiter_omega = -0.95d0

# Chemistry
elements = H He
element_abundances = 0.75 0.25

# Ionisation Equilibrium
uvb_equilibrium = disable
uvb_model = HM12
uvb_self_shielding = disable
collisional_ionization_equilibrium = enable
photoionization_equilibrium = disable
ie_convergence_rate = 0.001
ie_max_niterations = 10000
species_cases = case_a case_a case_a
equilibrium_table_size = 1024 1024
equilibrium_table_temp_range = 1d3 1d8 K
equilibrium_table_density_range = 1d-4 1d3 "m_H / cm^3"

# MUSCL-Hancock solver
solver_type = memory_intensive

# Drawing
canvas = transparent

# Sanity Check
sanity_check = enable
sanity_check_frequency = 1
sanity_check_rho = enable 0.0031660545084415703 118.36173008481566 "m_H / cm^3"
sanity_check_e_tot = enable 0.0 6.227134972118564e-09 "m_H / cm^3 * Mpc^2 / Myr^2"
sanity_check_temp = enable 2500.0 20000000.0 K
sanity_check_ntr_frac_0 = enable 0 1
sanity_check_ntr_frac_1 = enable 0 1
sanity_check_ntr_frac_2 = enable 0 1
sanity_check_abs_v = enable 0.0 0.000246383965386265 "Mpc / Myr"
sanity_check_total_mass = enable 0.9 1.1
sanity_check_total_energy = enable 0.9 1.1

# Stabilizer
stabilizer = enable
stabilizer_weight = rho
stabilizer_weight_power = 2
stabilizer_initialize_center = disable 84 84 84
stabilizer_tolerance = 37.11473670974872
stabilizer_min_time_interval = 10
stabilizer_start_at = 0

# Chombo Output
chombo_prefix = "./output"
chombo_nickname = 55h_M05
chombo_output_every = -1
chombo_output_restart_backup_every = 10
chombo_output_rule = log 1d-6 1d-1 40
chombo_output_rule  = linear 2d-1 6d1 599
chombo_output_final_time = 60.1
